key: DEBUG_MODE
value: false
key: VERBOSE_MODE
value: true
key: SHOW_EXE_STAT
value: true
key: SANITY_CHECK
value: false
key: BOOLEAN_ROB
value: true
key: RELEASE_DP_TABLE_MEMORY
value: false
key: RELEASE_SPATIAL_MEMORY
value: false
key: STQL_SIGNAL_DIM_SIZE
value: 11
key: MAX_STQL_FORMULA_SIZE
value: 1000
key: MAX_VAR_NUM
value: 100
key: MAX_NUM_PARAMS
value: 20
key: SHOW_WARNINGS
value: true
key: MAX_UNIQUE_VAR_ID_IN_PRED
value: 6
key: MAX_OBJ_IN_FRAME
value: 100
key: MAX_NUM_FREEZ_VAR
value: 100
key: MAX_NUM_PRED
value: 1000
key: MAX_MAP_DATA_SIZE
value: 100
key: MAX_LINKED_LIST_SIZE
value: 1000000
key: MAX_ID_TABLE_SIZE
value: 10000000
key: NUM_FRAME_TO_LOAD
value: 25
key: UX_START
value: 0
key: UY_START
value: 0
key: U_WIDTH
value: 1600
key: U_HEIGHT
value: 1200
key: input_signal_file
value: 'bdd-input-data.txt'
key: formula
value: '[]( @ (_,Var_f,FORALL, Var_id_1)( ((high_prob /\ spatio_far_left /\ spatio_far_right /\ spatio_far_up /\ spatio_far_down) /\ <> ( {C_FRAME - Var_f <= 5} /\ @(FORALL,Var_id_2)({Var_id_1 - Var_id_2 != 0}) )) -> ( (@(FORALL,Var_id_5)({Var_id_1 - Var_id_5 != 0})) R ({C_FRAME - Var_f < 2} -> @(EXISTS,Var_id_3)(@(EXISTS,Var_id_4)(spatio_overlap /\ {Var_id_1 - Var_id_3 != 0} /\ {Var_id_1 - Var_id_4 == 0})) )   )))'
key: formula.spatio_overlap
value: 'ED(Var_id_4,CT,Var_id_3,CT) < 250 '
key: formula.spatio_far_left
value: 'LAT(Var_id_1,LM) > 100 '
key: formula.spatio_far_right
value: 'LAT(Var_id_1,RM) < 1000 '
key: formula.spatio_far_up
value: 'LON(Var_id_1,TM) > 200 '
key: formula.spatio_far_down
value: 'LON(Var_id_1,BM) < 700 '
key: formula.high_prob
value: 'P(Var_id_1) > 0.8 '
#row: 370 #col: 11
This is the main function.
Input Signal File Name: bdd-input-data.txt
Printing input signal:
0.000	0.000	1.000	1.000	1.000	341.568	276.761	750.940	585.721	546.254	431.241	
0.000	0.000	2.000	1.000	1.000	218.260	329.701	372.982	406.215	295.621	367.958	
0.000	0.000	3.000	1.000	1.000	366.740	328.262	415.889	366.350	391.315	347.306	
0.000	0.000	4.000	3.000	1.000	807.065	306.133	829.322	371.563	818.194	338.848	
0.000	0.000	5.000	1.000	1.000	707.686	316.063	749.273	356.541	728.480	336.302	
0.000	0.000	6.000	1.000	1.000	840.203	313.845	929.484	345.989	884.843	329.917	
0.000	0.000	7.000	1.000	1.000	1090.791	341.016	1142.914	368.186	1116.853	354.601	
0.000	0.000	8.000	1.000	1.000	1179.510	313.291	1280.000	408.664	1229.755	360.977	
0.000	0.000	9.000	1.000	1.000	1126.833	280.576	1278.765	374.840	1202.799	327.708	
0.000	0.000	10.000	3.000	1.000	942.256	307.302	956.515	319.448	949.386	313.375	
0.000	0.000	11.000	2.000	1.000	832.387	367.802	894.827	478.559	863.607	423.181	
0.000	0.000	12.000	1.000	1.000	351.996	334.443	382.031	374.308	367.013	354.375	
1.000	0.033	1.000	1.000	1.000	353.271	275.200	770.441	587.620	561.856	431.410	
1.000	0.033	2.000	1.000	1.000	205.776	330.481	364.722	408.346	285.249	369.413	
1.000	0.033	3.000	1.000	1.000	367.240	327.098	414.275	367.021	390.758	347.060	
1.000	0.033	4.000	3.000	1.000	817.579	306.715	837.473	372.145	827.526	339.430	
1.000	0.033	5.000	1.000	1.000	712.367	316.063	750.745	356.541	731.556	336.302	
1.000	0.033	6.000	1.000	1.000	842.387	313.845	930.648	345.209	886.518	329.527	
1.000	0.033	7.000	1.000	1.000	1097.589	340.433	1146.407	367.700	1121.998	354.066	
1.000	0.033	8.000	1.000	1.000	1184.340	313.291	1280.000	408.664	1232.170	360.977	
1.000	0.033	9.000	1.000	1.000	1127.864	280.367	1278.765	371.193	1203.315	325.780	
1.000	0.033	12.000	1.000	1.000	346.776	336.565	385.008	373.236	365.892	354.900	
1.000	0.033	10.000	3.000	1.000	942.256	307.302	960.163	320.504	951.210	313.903	
1.000	0.033	11.000	2.000	1.000	837.067	367.279	896.534	479.133	866.800	423.206	
2.000	0.067	1.000	1.000	1.000	368.035	275.842	779.613	588.261	573.824	432.052	
2.000	0.067	2.000	1.000	1.000	179.458	330.932	354.035	416.691	266.747	373.811	
2.000	0.067	3.000	1.000	1.000	368.524	329.918	415.559	368.947	392.041	349.433	
2.000	0.067	4.000	3.000	1.000	827.105	306.715	850.953	372.145	839.029	339.430	
2.000	0.067	5.000	1.000	1.000	718.145	316.705	756.329	357.422	737.237	337.063	
2.000	0.067	6.000	1.000	1.000	850.543	313.204	937.564	343.187	894.053	328.195	
2.000	0.067	7.000	1.000	1.000	1109.606	340.433	1155.822	368.917	1132.714	354.675	
2.000	0.067	8.000	1.000	1.000	1196.262	313.291	1280.000	408.664	1238.131	360.977	
2.000	0.067	9.000	1.000	1.000	1137.207	279.083	1280.000	368.275	1208.604	323.679	
2.000	0.067	12.000	1.000	1.000	338.432	337.849	386.772	375.395	362.602	356.622	
2.000	0.067	10.000	3.000	1.000	940.144	307.830	958.051	321.032	949.098	314.431	
2.000	0.067	11.000	2.000	1.000	845.803	366.114	899.610	477.237	872.707	421.676	
3.000	0.100	1.000	1.000	1.000	386.191	274.632	792.807	587.051	589.499	430.841	
3.000	0.100	2.000	1.000	1.000	126.700	333.508	325.670	429.323	226.185	381.415	
3.000	0.100	3.000	1.000	1.000	368.025	329.024	409.615	367.689	388.820	348.356	
3.000	0.100	4.000	3.000	1.000	841.223	301.514	869.939	364.717	855.581	333.115	
3.000	0.100	5.000	1.000	1.000	734.024	314.476	763.760	354.990	748.892	334.733	
3.000	0.100	6.000	1.000	1.000	863.139	308.745	944.362	330.620	903.751	319.683	
3.000	0.100	7.000	1.000	1.000	1099.946	334.489	1174.600	368.432	1137.273	351.461	
3.000	0.100	8.000	1.000	1.000	1213.983	315.674	1280.000	408.664	1246.991	362.169	
3.000	0.100	9.000	1.000	1.000	1163.454	281.312	1280.000	370.505	1221.727	325.908	
3.000	0.100	12.000	1.000	1.000	332.357	335.619	384.543	375.863	358.450	355.741	
3.000	0.100	13.000	1.000	1.000	298.176	338.709	340.531	381.065	319.354	359.887	
3.000	0.100	10.000	3.000	1.000	942.064	304.421	962.132	355.646	952.098	330.034	
3.000	0.100	11.000	2.000	1.000	858.616	360.872	911.026	472.578	884.821	416.725	
4.000	0.133	1.000	1.000	1.000	408.129	273.924	806.060	590.088	607.095	432.006	
4.000	0.133	2.000	1.000	1.000	58.761	336.799	290.861	441.354	174.811	389.076	
4.000	0.133	3.000	1.000	1.000	372.953	329.024	409.615	367.937	391.284	348.480	
4.000	0.133	4.000	3.000	1.000	864.147	300.806	889.182	370.060	876.664	335.433	
4.000	0.133	5.000	1.000	1.000	750.394	315.532	767.507	355.982	758.951	335.757	
4.000	0.133	6.000	1.000	1.000	871.798	308.777	952.166	351.918	911.982	330.347	
4.000	0.133	7.000	1.000	1.000	1107.601	303.537	1222.954	365.814	1165.278	334.676	
4.000	0.133	8.000	1.000	1.000	1233.570	320.522	1280.000	401.198	1256.785	360.860	
4.000	0.133	9.000	1.000	1.000	1176.954	278.481	1280.000	370.060	1228.477	324.271	
4.000	0.133	12.000	1.000	1.000	328.819	334.912	389.938	376.429	359.378	355.670	
4.000	0.133	13.000	1.000	1.000	269.161	339.417	340.399	383.506	304.780	361.462	
4.000	0.133	10.000	3.000	1.000	942.833	304.949	962.660	356.174	952.746	330.562	
4.000	0.133	11.000	2.000	1.000	887.642	359.456	954.443	472.620	921.042	416.038	
5.000	0.167	1.000	1.000	1.000	427.340	273.924	819.019	590.088	623.180	432.006	
5.000	0.167	2.000	1.000	1.000	0.000	338.214	247.770	461.481	123.885	399.847	
5.000	0.167	3.000	1.000	1.000	374.009	330.608	401.444	367.408	387.727	349.008	
5.000	0.167	4.000	3.000	1.000	873.125	301.334	914.604	369.040	893.864	335.187	
5.000	0.167	6.000	1.000	1.000	861.423	310.160	937.380	344.663	899.401	327.412	
5.000	0.167	7.000	1.000	1.000	1118.831	302.481	1243.022	370.049	1180.926	336.265	
5.000	0.167	8.000	1.000	1.000	1261.943	331.498	1280.000	394.341	1270.971	362.919	
5.000	0.167	9.000	1.000	1.000	1192.235	283.442	1280.000	371.633	1236.118	327.537	
5.000	0.167	12.000	1.000	1.000	328.819	337.024	391.411	374.801	360.115	355.913	
5.000	0.167	13.000	1.000	1.000	245.397	341.001	342.298	388.532	293.847	364.767	
5.000	0.167	10.000	3.000	1.000	943.649	305.478	957.379	323.625	950.514	314.551	
5.000	0.167	11.000	2.000	1.000	909.191	371.105	980.917	470.132	945.054	420.618	
6.000	0.200	1.000	1.000	1.000	445.852	275.568	832.558	589.590	639.205	432.579	
6.000	0.200	2.000	1.000	1.000	0.000	338.214	189.250	470.135	94.625	404.174	
6.000	0.200	3.000	1.000	1.000	372.953	330.608	391.987	351.085	382.470	340.847	
6.000	0.200	4.000	3.000	1.000	897.417	301.334	921.997	369.040	909.707	335.187	
6.000	0.200	6.000	1.000	1.000	866.728	309.089	946.457	346.223	906.592	327.656	
6.000	0.200	7.000	1.000	1.000	1129.920	303.009	1259.393	369.520	1194.657	336.265	
6.000	0.200	8.000	1.000	1.000	1270.392	351.037	1280.000	392.756	1275.196	371.897	
6.000	0.200	9.000	1.000	1.000	1192.235	292.947	1280.000	373.745	1236.118	333.346	
6.000	0.200	12.000	1.000	1.000	327.763	336.496	390.354	374.273	359.059	355.385	
6.000	0.200	13.000	1.000	1.000	243.812	340.473	340.714	388.004	292.263	364.238	
6.000	0.200	10.000	3.000	1.000	952.338	303.029	970.821	341.052	961.580	322.040	
6.000	0.200	14.000	1.000	1.000	498.133	324.153	527.178	355.838	512.655	339.995	
6.000	0.200	11.000	2.000	1.000	936.598	372.389	1024.581	472.344	980.589	422.367	
7.000	0.233	1.000	1.000	1.000	464.251	276.472	850.827	580.851	657.539	428.661	
7.000	0.233	2.000	1.000	1.000	0.000	336.420	109.246	465.450	54.623	400.935	
7.000	0.233	4.000	3.000	1.000	914.844	298.694	948.305	369.088	931.575	333.891	
7.000	0.233	6.000	1.000	1.000	870.550	306.748	957.379	343.336	913.965	325.042	
7.000	0.233	7.000	1.000	1.000	1141.010	302.481	1276.820	371.201	1208.915	336.841	
7.000	0.233	9.000	1.000	1.000	1211.246	302.021	1280.000	375.425	1245.623	338.723	
7.000	0.233	12.000	1.000	1.000	327.235	337.552	377.392	375.329	352.313	356.441	
7.000	0.233	13.000	1.000	1.000	241.700	340.473	338.602	388.004	290.151	364.238	
7.000	0.233	10.000	3.000	1.000	941.440	310.422	975.766	365.392	958.603	337.907	
7.000	0.233	14.000	1.000	1.000	495.492	323.097	529.482	361.743	512.487	342.420	
7.000	0.233	11.000	2.000	1.000	970.379	360.054	1082.025	472.461	1026.202	416.258	
8.000	0.267	1.000	1.000	1.000	482.789	275.472	865.255	582.631	674.022	429.052	
8.000	0.267	4.000	3.000	1.000	930.494	296.053	957.811	366.448	944.153	331.251	
8.000	0.267	6.000	1.000	1.000	874.295	307.840	962.216	343.883	918.255	325.861	
8.000	0.267	7.000	1.000	1.000	1150.516	326.245	1211.336	372.641	1180.926	349.443	
8.000	0.267	9.000	1.000	1.000	1232.370	335.675	1280.000	375.425	1256.185	355.550	
8.000	0.267	12.000	1.000	1.000	327.235	334.384	368.655	373.697	347.945	354.040	
8.000	0.267	13.000	1.000	1.000	239.588	337.305	336.489	387.956	288.038	362.630	
8.000	0.267	10.000	3.000	1.000	948.978	308.838	962.036	364.720	955.507	336.779	
8.000	0.267	14.000	1.000	1.000	488.099	320.984	533.947	362.079	511.023	341.532	
8.000	0.267	15.000	1.000	1.000	540.236	319.832	566.640	347.293	553.438	333.562	
8.000	0.267	16.000	1.000	1.000	524.921	325.113	541.820	347.821	533.371	336.467	
8.000	0.267	11.000	2.000	1.000	1014.979	379.101	1159.603	478.408	1087.291	428.755	
9.000	0.300	1.000	1.000	1.000	505.961	275.280	884.311	581.086	695.136	428.183	
9.000	0.300	4.000	3.000	1.000	953.490	293.941	970.389	365.536	961.940	329.738	
9.000	0.300	6.000	1.000	1.000	878.742	307.520	947.249	344.273	912.995	325.896	
9.000	0.300	7.000	1.000	1.000	1166.359	324.133	1238.269	370.529	1202.314	347.331	
9.000	0.300	9.000	1.000	1.000	1257.718	316.663	1279.472	376.098	1268.595	346.380	
9.000	0.300	12.000	1.000	1.000	324.575	335.440	351.180	373.505	337.877	354.472	
9.000	0.300	13.000	1.000	1.000	238.003	334.664	339.562	385.315	288.783	359.990	
9.000	0.300	10.000	3.000	1.000	945.809	302.501	960.884	363.951	953.346	333.226	
9.000	0.300	14.000	1.000	1.000	481.234	320.456	531.018	360.831	506.126	340.644	
9.000	0.300	15.000	1.000	1.000	536.539	315.943	579.075	349.213	557.807	332.578	
9.000	0.300	16.000	1.000	1.000	520.985	320.360	539.996	347.101	530.490	333.730	
9.000	0.300	11.000	2.000	1.000	1075.522	379.035	1250.118	482.689	1162.820	430.862	
10.000	0.333	1.000	1.000	1.000	525.623	276.100	899.601	579.131	712.612	427.615	
10.000	0.333	4.000	3.000	1.000	965.204	294.997	1007.452	369.136	986.328	332.067	
10.000	0.333	6.000	1.000	1.000	887.719	309.632	975.766	337.787	931.743	323.710	
10.000	0.333	7.000	1.000	1.000	1227.089	323.076	1264.145	370.673	1245.617	346.875	
10.000	0.333	13.000	1.000	1.000	235.092	337.575	335.041	388.501	285.066	363.038	
10.000	0.333	10.000	3.000	1.000	942.496	302.501	969.957	368.080	956.227	335.291	
10.000	0.333	14.000	1.000	1.000	477.537	321.512	527.322	361.887	502.430	341.700	
10.000	0.333	15.000	1.000	1.000	535.483	318.056	581.859	351.325	558.671	334.690	
10.000	0.333	16.000	1.000	1.000	519.929	323.000	538.940	349.741	529.434	336.371	
10.000	0.333	11.000	2.000	1.000	1144.880	359.366	1280.000	492.208	1212.440	425.787	
11.000	0.367	1.000	1.000	1.000	548.795	276.100	919.323	577.997	734.059	427.048	
11.000	0.367	4.000	3.000	1.000	994.441	294.340	1018.013	369.856	1006.227	332.098	
11.000	0.367	6.000	1.000	1.000	889.303	309.104	982.823	337.259	936.063	323.182	
11.000	0.367	7.000	1.000	1.000	1190.651	326.773	1262.561	375.137	1226.606	350.955	
11.000	0.367	13.000	1.000	1.000	232.452	338.104	315.702	389.029	274.077	363.566	
11.000	0.367	10.000	3.000	1.000	947.249	305.141	974.710	369.328	960.980	337.235	
11.000	0.367	14.000	1.000	1.000	469.616	322.568	525.353	364.576	497.485	343.572	
11.000	0.367	15.000	1.000	1.000	533.371	319.640	581.523	352.910	557.447	336.275	
11.000	0.367	16.000	1.000	1.000	512.007	325.641	536.635	350.845	524.321	338.243	
11.000	0.367	17.000	1.000	1.000	577.826	324.969	587.860	346.621	582.843	335.795	
11.000	0.367	18.000	1.000	1.000	584.692	325.497	598.950	343.980	591.821	334.738	
11.000	0.367	19.000	1.000	1.000	596.310	323.385	618.489	342.396	607.399	332.890	
11.000	0.367	11.000	2.000	1.000	1216.335	427.715	1280.000	492.208	1248.167	459.962	
12.000	0.400	1.000	1.000	1.000	567.109	276.100	940.144	578.351	753.626	427.225	
12.000	0.400	4.000	3.000	1.000	1013.453	294.868	1037.025	370.385	1025.239	332.626	
12.000	0.400	6.000	1.000	1.000	896.697	311.745	990.217	334.330	943.457	323.038	
12.000	0.400	7.000	1.000	1.000	1202.797	326.245	1280.000	379.218	1241.398	352.732	
12.000	0.400	13.000	1.000	1.000	232.452	339.659	300.675	389.029	266.563	364.344	
12.000	0.400	10.000	3.000	1.000	945.137	305.670	972.598	371.825	958.867	338.747	
12.000	0.400	14.000	1.000	1.000	460.110	322.568	520.889	367.120	490.500	344.844	
12.000	0.400	15.000	1.000	1.000	530.730	320.168	582.147	353.390	556.439	336.779	
12.000	0.400	16.000	1.000	1.000	508.311	323.529	529.866	353.390	519.088	338.459	
12.000	0.400	17.000	1.000	1.000	575.714	322.856	585.748	344.508	580.731	333.682	
12.000	0.400	18.000	1.000	1.000	583.107	324.969	597.366	343.452	590.237	334.210	
12.000	0.400	19.000	1.000	1.000	596.838	324.969	621.226	343.980	609.032	334.474	
12.000	0.400	20.000	1.000	1.000	622.282	325.929	642.877	342.828	632.580	334.378	
13.000	0.433	1.000	1.000	1.000	596.682	277.777	959.971	574.467	778.327	426.122	
13.000	0.433	4.000	3.000	1.000	1025.359	294.340	1052.339	369.712	1038.849	332.026	
13.000	0.433	6.000	1.000	1.000	907.787	311.217	994.729	332.746	951.258	321.981	
13.000	0.433	7.000	1.000	1.000	1213.359	326.245	1280.000	379.218	1246.679	352.732	
13.000	0.433	13.000	1.000	1.000	223.959	342.490	267.765	390.133	245.862	366.311	
13.000	0.433	10.000	3.000	1.000	940.912	305.670	976.246	371.297	958.579	338.483	
13.000	0.433	14.000	1.000	1.000	449.549	322.040	513.687	368.656	481.618	345.348	
13.000	0.433	15.000	1.000	1.000	526.506	320.072	578.643	354.398	552.574	337.235	
13.000	0.433	16.000	1.000	1.000	501.973	323.000	530.586	352.814	516.280	337.907	
13.000	0.433	17.000	1.000	1.000	572.017	321.800	582.051	343.452	577.034	332.626	
13.000	0.433	18.000	1.000	1.000	581.523	324.969	595.781	344.892	588.652	334.931	
13.000	0.433	19.000	1.000	1.000	596.598	323.913	623.050	343.308	609.824	333.610	
13.000	0.433	20.000	1.000	1.000	622.282	324.535	646.286	339.280	634.284	331.908	
13.000	0.433	21.000	1.000	1.000	645.230	312.151	682.196	350.701	663.713	331.426	
14.000	0.467	1.000	1.000	1.000	624.770	278.557	983.585	566.307	804.178	422.432	
14.000	0.467	4.000	3.000	1.000	1049.209	289.449	1069.383	313.225	1059.296	301.337	
14.000	0.467	6.000	1.000	1.000	928.777	308.160	998.397	331.565	963.587	319.862	
14.000	0.467	7.000	1.000	1.000	1220.604	326.245	1280.000	377.415	1250.302	351.830	
14.000	0.467	10.000	3.000	1.000	939.406	303.224	963.012	367.022	951.209	335.123	
14.000	0.467	14.000	1.000	1.000	435.818	318.872	505.238	369.376	470.528	344.124	
14.000	0.467	15.000	1.000	1.000	519.112	317.960	572.305	353.534	545.709	335.747	
14.000	0.467	16.000	1.000	1.000	500.389	318.248	529.002	350.893	514.696	334.570	
14.000	0.467	17.000	1.000	1.000	566.737	320.744	584.452	346.140	575.594	333.442	
14.000	0.467	18.000	1.000	1.000	579.939	323.913	595.541	343.500	587.740	333.706	
14.000	0.467	19.000	1.000	1.000	593.429	322.328	619.882	341.724	606.655	332.026	
14.000	0.467	20.000	1.000	1.000	620.698	322.760	644.702	338.555	632.700	330.658	
14.000	0.467	21.000	1.000	1.000	649.935	313.207	692.758	356.702	671.346	334.955	
14.000	0.467	22.000	1.000	1.000	639.373	322.376	655.744	333.994	647.558	328.185	
14.000	0.467	13.000	1.000	1.000	218.634	361.520	238.066	391.475	228.350	376.498	
15.000	0.500	1.000	1.000	1.000	648.479	279.505	1011.742	565.664	830.111	422.585	
15.000	0.500	4.000	3.000	1.000	1064.929	290.613	1100.818	370.399	1082.873	330.506	
15.000	0.500	6.000	1.000	1.000	942.750	308.160	1001.999	323.821	972.375	315.991	
15.000	0.500	7.000	1.000	1.000	1230.335	327.897	1280.000	377.415	1255.167	352.656	
15.000	0.500	14.000	1.000	1.000	415.644	320.706	492.010	371.210	453.827	345.958	
15.000	0.500	15.000	1.000	1.000	510.663	317.432	564.576	354.734	537.620	336.083	
15.000	0.500	16.000	1.000	1.000	495.108	319.304	523.721	338.891	509.415	329.098	
15.000	0.500	17.000	1.000	1.000	560.399	321.272	582.531	343.644	571.465	332.458	
15.000	0.500	18.000	1.000	1.000	577.826	322.856	593.429	342.444	585.628	332.650	
15.000	0.500	19.000	1.000	1.000	591.317	321.800	617.769	341.196	604.543	331.498	
15.000	0.500	20.000	1.000	1.000	617.529	323.289	641.533	339.083	629.531	331.186	
15.000	0.500	21.000	1.000	1.000	649.407	312.679	696.263	355.262	672.835	333.970	
15.000	0.500	22.000	1.000	1.000	637.789	320.792	654.159	332.410	645.974	326.601	
15.000	0.500	23.000	1.000	1.000	481.666	327.801	509.127	353.678	495.396	340.740	
15.000	0.500	24.000	1.000	1.000	699.959	319.880	717.386	330.970	708.673	325.425	
16.000	0.533	1.000	1.000	1.000	671.651	281.050	1041.362	562.549	856.507	421.800	
16.000	0.533	4.000	3.000	1.000	1079.188	291.142	1105.244	373.409	1092.216	332.275	
16.000	0.533	6.000	1.000	1.000	975.718	308.688	997.774	324.260	986.746	316.474	
16.000	0.533	7.000	1.000	1.000	1232.370	331.978	1280.000	382.147	1256.185	357.062	
16.000	0.533	14.000	1.000	1.000	392.408	319.122	474.369	375.569	433.389	347.345	
16.000	0.533	15.000	1.000	1.000	496.405	317.432	556.751	356.030	526.578	336.731	
16.000	0.533	16.000	1.000	1.000	486.131	320.360	507.830	334.090	496.981	327.225	
16.000	0.533	17.000	1.000	1.000	550.894	321.800	577.010	345.180	563.952	333.490	
16.000	0.533	18.000	1.000	1.000	570.433	322.856	587.572	343.596	579.003	333.226	
16.000	0.533	19.000	1.000	1.000	580.755	323.385	610.088	342.300	595.421	332.842	
16.000	0.533	20.000	1.000	1.000	609.262	323.817	633.516	340.716	621.389	332.266	
16.000	0.533	21.000	1.000	1.000	646.238	312.679	694.438	353.918	670.338	333.298	
16.000	0.533	22.000	1.000	1.000	631.452	321.320	647.246	335.675	639.349	328.497	
16.000	0.533	23.000	1.000	1.000	467.408	328.329	504.134	356.270	485.771	342.300	
16.000	0.533	24.000	1.000	1.000	693.094	321.176	711.865	333.034	702.480	327.105	
16.000	0.533	5.000	1.000	1.000	726.988	310.326	763.954	343.356	745.471	326.841	
16.000	0.533	25.000	1.000	1.000	722.247	315.642	739.176	350.592	730.711	333.117	
17.000	0.567	1.000	1.000	1.000	704.104	278.370	1080.653	554.107	892.378	416.238	
17.000	0.567	4.000	3.000	1.000	1089.018	289.503	1121.615	371.565	1105.317	330.534	
17.000	0.567	7.000	1.000	1.000	1239.288	331.978	1280.000	382.147	1259.644	357.062	
17.000	0.567	14.000	1.000	1.000	361.779	317.009	459.774	383.971	410.777	350.490	
17.000	0.567	15.000	1.000	1.000	480.562	316.903	543.741	356.510	512.151	336.707	
17.000	0.567	16.000	1.000	1.000	479.794	319.304	498.325	333.274	489.059	326.289	
17.000	0.567	17.000	1.000	1.000	546.141	320.744	572.257	344.124	559.199	332.434	
17.000	0.567	18.000	1.000	1.000	566.208	322.328	583.347	343.068	574.778	332.698	
17.000	0.567	19.000	1.000	1.000	577.058	321.272	606.391	340.187	591.725	330.730	
17.000	0.567	20.000	1.000	1.000	605.383	321.704	627.179	338.603	616.281	330.154	
17.000	0.567	21.000	1.000	1.000	643.598	312.679	688.965	351.229	666.281	331.954	
17.000	0.567	22.000	1.000	1.000	628.811	321.320	644.606	335.675	636.708	328.497	
17.000	0.567	23.000	1.000	1.000	458.430	327.273	487.235	354.398	472.833	340.836	
17.000	0.567	24.000	1.000	1.000	688.341	319.592	706.392	331.450	697.367	325.521	
17.000	0.567	5.000	1.000	1.000	719.162	309.270	786.134	368.080	752.648	338.675	
17.000	0.567	26.000	1.000	1.000	0.000	147.363	154.647	612.348	77.323	379.855	
17.000	0.567	27.000	1.000	1.000	365.054	325.449	381.953	345.516	373.504	335.483	
17.000	0.567	28.000	1.000	1.000	451.661	328.089	471.728	357.662	461.695	342.876	
17.000	0.567	25.000	1.000	1.000	716.396	313.457	732.077	349.187	724.236	331.322	
18.000	0.600	1.000	1.000	1.000	738.686	277.217	1125.507	552.068	932.097	414.642	
18.000	0.600	4.000	3.000	1.000	1100.476	288.155	1131.019	368.430	1115.748	328.293	
18.000	0.600	7.000	1.000	1.000	1243.575	331.978	1280.000	381.236	1261.788	356.607	
18.000	0.600	14.000	1.000	1.000	336.959	317.537	442.731	383.203	389.845	350.370	
18.000	0.600	15.000	1.000	1.000	469.008	313.694	532.541	357.188	500.774	335.441	
18.000	0.600	17.000	1.000	1.000	539.804	319.688	565.920	343.068	552.862	331.378	
18.000	0.600	18.000	1.000	1.000	558.815	324.441	575.762	342.108	567.289	333.274	
18.000	0.600	19.000	1.000	1.000	570.721	320.744	600.054	339.659	585.388	330.202	
18.000	0.600	20.000	1.000	1.000	597.414	320.648	622.234	337.883	609.824	329.266	
18.000	0.600	21.000	1.000	1.000	640.165	312.415	684.717	350.701	662.441	331.558	
18.000	0.600	22.000	1.000	1.000	617.961	321.320	644.606	333.994	631.283	327.657	
18.000	0.600	23.000	1.000	1.000	449.981	326.745	474.225	353.870	462.103	340.307	
18.000	0.600	24.000	1.000	1.000	684.645	318.008	700.247	329.866	692.446	323.937	
18.000	0.600	5.000	1.000	1.000	714.506	309.270	790.359	365.872	752.432	337.571	
18.000	0.600	26.000	1.000	1.000	0.000	69.757	251.969	561.004	125.985	315.381	
18.000	0.600	27.000	1.000	1.000	337.593	325.977	359.821	346.765	348.707	336.371	
18.000	0.600	28.000	1.000	1.000	430.009	327.033	459.630	356.798	444.820	341.916	
18.000	0.600	29.000	1.000	1.000	527.562	323.625	547.629	344.748	537.596	334.186	
18.000	0.600	25.000	1.000	1.000	712.027	312.911	727.708	346.769	719.868	329.840	
19.000	0.633	1.000	1.000	1.000	780.298	275.731	1177.572	538.935	978.935	407.333	
19.000	0.633	4.000	3.000	1.000	1115.263	281.818	1143.123	356.606	1129.193	319.212	
19.000	0.633	7.000	1.000	1.000	1246.964	331.210	1280.000	369.760	1263.482	350.485	
19.000	0.633	14.000	1.000	1.000	308.970	318.593	421.176	389.780	365.073	354.187	
19.000	0.633	15.000	1.000	1.000	452.109	315.278	519.929	359.679	486.019	337.479	
19.000	0.633	17.000	1.000	1.000	532.411	319.160	558.527	342.540	545.469	330.850	
19.000	0.633	18.000	1.000	1.000	554.062	323.385	571.009	341.196	562.536	332.290	
19.000	0.633	19.000	1.000	1.000	563.856	321.272	593.189	340.187	578.523	330.730	
19.000	0.633	20.000	1.000	1.000	592.661	322.232	617.481	338.555	605.071	330.394	
19.000	0.633	21.000	1.000	1.000	636.732	312.151	680.468	350.173	658.600	331.162	
19.000	0.633	22.000	1.000	1.000	613.208	321.320	639.853	333.994	626.531	327.657	
19.000	0.633	23.000	1.000	1.000	446.284	327.801	462.146	350.701	454.215	339.251	
19.000	0.633	24.000	1.000	1.000	680.420	318.536	695.302	330.394	687.861	324.465	
19.000	0.633	5.000	1.000	1.000	709.753	307.686	788.342	361.311	749.048	334.498	
19.000	0.633	26.000	1.000	1.000	0.000	69.757	321.485	561.004	160.743	315.381	
19.000	0.633	27.000	1.000	1.000	319.110	328.089	332.457	348.061	325.783	338.075	
19.000	0.633	28.000	1.000	1.000	416.807	329.146	448.108	358.623	432.458	343.884	
19.000	0.633	29.000	1.000	1.000	523.337	324.153	543.405	345.276	533.371	334.714	
19.000	0.633	30.000	1.000	1.000	514.168	324.297	528.954	346.477	521.561	335.387	
19.000	0.633	25.000	1.000	1.000	707.352	313.255	722.667	349.693	715.010	331.474	
20.000	0.667	1.000	1.000	1.000	828.187	274.186	1243.402	538.738	1035.795	406.462	
20.000	0.667	7.000	1.000	1.000	1252.606	334.774	1280.000	370.821	1266.303	352.797	
20.000	0.667	14.000	1.000	1.000	347.771	322.818	402.693	386.947	375.232	354.883	
20.000	0.667	15.000	1.000	1.000	435.210	320.031	506.726	367.408	470.968	343.720	
20.000	0.667	17.000	1.000	1.000	526.602	324.441	551.614	347.869	539.108	336.155	
20.000	0.667	18.000	1.000	1.000	550.030	329.194	562.176	346.284	556.103	337.739	
20.000	0.667	19.000	1.000	1.000	559.103	327.609	588.436	346.524	573.770	337.067	
20.000	0.667	20.000	1.000	1.000	586.324	326.457	611.144	342.780	598.734	334.618	
20.000	0.667	21.000	1.000	1.000	635.148	316.375	677.827	352.622	656.488	334.498	
20.000	0.667	22.000	1.000	1.000	605.815	325.017	635.580	339.947	620.698	332.482	
20.000	0.667	24.000	1.000	1.000	677.827	322.520	689.973	335.195	683.900	328.857	
20.000	0.667	5.000	1.000	1.000	705.000	311.911	780.277	365.536	742.638	338.723	
20.000	0.667	26.000	1.000	1.000	0.000	69.757	370.919	602.714	185.459	336.236	
20.000	0.667	28.000	1.000	1.000	409.942	334.426	441.243	363.903	425.592	349.165	
20.000	0.667	29.000	1.000	1.000	517.000	328.906	537.067	350.029	527.034	339.467	
20.000	0.667	30.000	1.000	1.000	501.493	330.634	521.513	351.037	511.503	340.836	
20.000	0.667	31.000	1.000	1.000	388.434	334.666	415.895	367.936	402.164	351.301	
20.000	0.667	10.000	3.000	1.000	886.663	306.630	908.843	336.731	897.753	321.680	
20.000	0.667	25.000	1.000	1.000	701.543	317.480	716.858	353.918	709.201	335.699	
21.000	0.700	1.000	1.000	1.000	886.882	271.096	1277.388	540.922	1082.135	406.009	
21.000	0.700	15.000	1.000	1.000	414.614	321.320	490.644	372.161	452.629	346.741	
21.000	0.700	17.000	1.000	1.000	518.152	327.609	544.509	349.837	531.330	338.723	
21.000	0.700	18.000	1.000	1.000	540.524	328.665	552.670	345.756	546.597	337.211	
21.000	0.700	19.000	1.000	1.000	552.238	327.609	581.571	346.524	566.905	337.067	
21.000	0.700	20.000	1.000	1.000	579.987	329.098	604.807	345.420	592.397	337.259	
21.000	0.700	21.000	1.000	1.000	632.244	318.224	672.403	353.102	652.323	335.663	
21.000	0.700	22.000	1.000	1.000	597.894	327.657	629.003	340.860	613.448	334.258	
21.000	0.700	24.000	1.000	1.000	670.692	324.069	680.276	335.379	675.484	329.724	
21.000	0.700	5.000	1.000	1.000	700.055	312.439	777.108	374.129	738.582	343.284	
21.000	0.700	26.000	1.000	1.000	0.000	96.019	406.449	564.094	203.225	330.056	
21.000	0.700	28.000	1.000	1.000	399.380	336.539	421.464	366.736	410.422	351.637	
21.000	0.700	29.000	1.000	1.000	509.079	332.074	529.194	352.478	519.136	342.276	
21.000	0.700	30.000	1.000	1.000	497.797	334.330	517.816	354.734	507.806	344.532	
21.000	0.700	31.000	1.000	1.000	384.209	336.779	405.621	368.848	394.915	352.814	
21.000	0.700	10.000	3.000	1.000	882.726	306.630	909.131	385.219	895.929	345.924	
21.000	0.700	16.000	1.000	1.000	480.172	326.486	499.621	354.590	489.896	340.538	
21.000	0.700	6.000	1.000	1.000	902.410	311.287	975.286	335.579	938.848	323.433	
21.000	0.700	25.000	1.000	1.000	696.119	320.648	712.105	355.598	704.112	338.123	
22.000	0.733	1.000	1.000	1.000	955.651	274.368	1277.388	540.922	1116.519	407.645	
22.000	0.733	15.000	1.000	1.000	406.165	320.792	474.177	373.121	440.171	346.957	
22.000	0.733	17.000	1.000	1.000	510.759	327.609	537.115	349.837	523.937	338.723	
22.000	0.733	18.000	1.000	1.000	534.715	329.722	546.861	346.813	540.788	338.267	
22.000	0.733	19.000	1.000	1.000	542.732	328.665	572.065	347.581	557.399	338.123	
22.000	0.733	20.000	1.000	1.000	572.594	329.098	597.414	345.420	585.004	337.259	
22.000	0.733	21.000	1.000	1.000	629.339	320.072	666.978	353.582	648.158	336.827	
22.000	0.733	22.000	1.000	1.000	590.501	327.657	623.626	341.964	607.063	334.811	
22.000	0.733	24.000	1.000	1.000	623.146	327.801	633.996	341.964	628.571	334.883	
22.000	0.733	5.000	1.000	1.000	693.718	313.495	775.764	374.705	734.741	344.100	
22.000	0.733	26.000	1.000	1.000	0.000	136.184	428.185	544.030	214.092	340.107	
22.000	0.733	29.000	1.000	1.000	501.685	332.602	521.801	353.006	511.743	342.804	
22.000	0.733	30.000	1.000	1.000	488.291	333.274	508.311	353.678	498.301	343.476	
22.000	0.733	10.000	3.000	1.000	872.693	309.270	909.707	390.020	891.200	349.645	
22.000	0.733	16.000	1.000	1.000	461.683	321.571	491.604	356.222	476.643	338.896	
22.000	0.733	6.000	1.000	1.000	900.297	312.871	974.134	337.163	937.216	325.017	
22.000	0.733	32.000	1.000	1.000	661.697	324.009	675.427	346.717	668.562	335.363	
22.000	0.733	25.000	1.000	1.000	689.301	321.176	707.352	356.750	698.327	338.963	
23.000	0.767	1.000	1.000	1.000	1038.312	270.624	1278.972	533.996	1158.642	402.310	
23.000	0.767	15.000	1.000	1.000	424.120	319.736	457.518	369.376	440.819	344.556	
23.000	0.767	17.000	1.000	1.000	501.781	324.969	529.338	348.781	515.560	336.875	
23.000	0.767	18.000	1.000	1.000	526.266	328.665	538.412	345.756	532.339	337.211	
23.000	0.767	19.000	1.000	1.000	535.339	326.025	563.664	344.556	549.502	335.291	
23.000	0.767	20.000	1.000	1.000	565.728	326.985	589.540	341.916	577.634	334.450	
23.000	0.767	21.000	1.000	1.000	625.643	314.791	663.281	348.301	644.462	331.546	
23.000	0.767	22.000	1.000	1.000	587.332	324.489	617.001	338.795	602.167	331.642	
23.000	0.767	24.000	1.000	1.000	617.961	323.049	629.579	336.635	623.770	329.842	
23.000	0.767	5.000	1.000	1.000	688.437	308.214	772.164	369.424	730.300	338.819	
23.000	0.767	26.000	1.000	1.000	0.000	170.169	444.731	523.111	222.365	346.640	
23.000	0.767	29.000	1.000	1.000	492.180	329.434	512.295	349.837	502.238	339.635	
23.000	0.767	30.000	1.000	1.000	479.842	331.162	499.861	351.565	489.851	341.364	
23.000	0.767	10.000	3.000	1.000	867.652	300.293	904.090	382.051	885.871	341.172	
23.000	0.767	16.000	1.000	1.000	441.789	321.181	481.810	356.174	461.800	338.677	
23.000	0.767	6.000	1.000	1.000	900.297	305.478	974.134	329.770	937.216	317.624	
23.000	0.767	32.000	1.000	1.000	656.944	320.312	671.298	341.388	664.121	330.850	
23.000	0.767	25.000	1.000	1.000	683.576	315.608	702.403	351.935	692.989	333.771	
24.000	0.800	1.000	1.000	1.000	1143.319	270.624	1280.000	533.996	1211.660	402.310	
24.000	0.800	17.000	1.000	1.000	493.332	325.497	523.385	351.565	508.359	338.531	
24.000	0.800	18.000	1.000	1.000	518.872	329.194	533.947	348.925	526.410	339.059	
24.000	0.800	19.000	1.000	1.000	527.418	328.329	558.239	348.781	542.828	338.555	
24.000	0.800	20.000	1.000	1.000	559.295	327.801	583.059	343.500	571.177	335.651	
24.000	0.800	21.000	1.000	1.000	623.002	317.432	661.505	348.397	642.253	332.914	
24.000	0.800	22.000	1.000	1.000	579.939	325.017	612.104	340.475	596.021	332.746	
24.000	0.800	24.000	1.000	1.000	614.217	323.049	629.579	337.835	621.898	330.442	
24.000	0.800	5.000	1.000	1.000	681.572	307.158	772.404	374.273	726.988	340.716	
24.000	0.800	26.000	1.000	1.000	59.309	183.777	458.910	496.374	259.110	340.075	
24.000	0.800	29.000	1.000	1.000	482.674	330.490	502.790	352.622	492.732	341.556	
24.000	0.800	30.000	1.000	1.000	468.224	331.162	488.243	355.790	478.233	343.476	
24.000	0.800	10.000	3.000	1.000	865.434	304.451	905.294	389.409	885.364	346.930	
24.000	0.800	16.000	1.000	1.000	438.357	325.017	470.576	358.783	454.466	341.900	
24.000	0.800	6.000	1.000	1.000	900.852	308.527	976.635	332.819	938.743	320.673	
24.000	0.800	32.000	1.000	1.000	653.247	319.784	667.602	340.860	660.424	330.322	
24.000	0.800	14.000	1.000	1.000	10.562	355.790	71.292	446.622	40.927	401.206	
24.000	0.800	4.000	3.000	1.000	1217.988	267.373	1250.757	312.431	1234.372	289.902	
24.000	0.800	25.000	1.000	1.000	680.191	317.174	698.487	352.624	689.339	334.899	
str: spatio_overlap, expr: ED(Var_id_4,CT,Var_id_3,CT) < 250 
str: spatio_far_left, expr: LAT(Var_id_1,LM) > 100 
str: spatio_far_right, expr: LAT(Var_id_1,RM) < 1000 
str: spatio_far_up, expr: LON(Var_id_1,TM) > 200 
str: spatio_far_down, expr: LON(Var_id_1,BM) < 700 
str: high_prob, expr: P(Var_id_1) > 0.8 
VERBOSE_MODE is activated.
SHOW_EXE_STAT is activated.
BOOLEAN_ROB is activated.
STQL_SIGNAL_DIM_SIZE = 11
MAX_STQL_FORMULA_SIZE = 1000
MAX_MAP_DATA_SIZE = 100
UX_START = 0
UY_START = 0
U_WIDTH = 1600
U_HEIGHT = 1200

Predicate expression:
spatio_overlap ::= ED(Var_id_4,CT,Var_id_3,CT)<250
number of unique variables: 2

Predicate expression:
spatio_far_left ::= LAT(Var_id_1,LM)>100
number of unique variables: 1

Predicate expression:
spatio_far_right ::= LAT(Var_id_1,RM)<1000
number of unique variables: 1

Predicate expression:
spatio_far_up ::= LON(Var_id_1,TM)>200
number of unique variables: 1

Predicate expression:
spatio_far_down ::= LON(Var_id_1,BM)<700
number of unique variables: 1

Predicate expression:
high_prob ::= P(Var_id_1)>0.8
number of unique variables: 1

Added predicate expression:
1-ID-SYM ::= SUB(Var_id_1,Var_id_2)!=0
number of unique variables: 2

Added predicate expression:
2-ID-SYM ::= SUB(Var_id_1,Var_id_5)!=0
number of unique variables: 2

Added predicate expression:
3-ID-SYM ::= SUB(Var_id_1,Var_id_3)!=0
number of unique variables: 2

Added predicate expression:
4-ID-SYM ::= SUB(Var_id_1,Var_id_4)==0
number of unique variables: 2

[](0,1) @(1,2) OR(1,3) OR(1,4) OR(1,5) OR(1,6) OR(1,7) OR(1,8) NOT(1,9) high_prob(1,10) NOT(1,11) spatio_far_left(1,12) NOT(1,13) spatio_far_right(1,14) NOT(1,15) spatio_far_up(1,16) NOT(1,17) spatio_far_down(1,18) NOT(1,19) <>(1,20) AND(1,21) <=(1,22) @(1,23) 1-ID-SYM(1,24) R(1,25) @(1,26) 2-ID-SYM(1,27) OR(1,28) NOT(1,29) <(1,30) @(1,31) @(1,32) AND(1,33) AND(1,34) spatio_overlap(1,35) 3-ID-SYM(1,36) 4-ID-SYM(1,37) 

[Note] OPTIMIZE_TRJ_BASED_ON_FORMULA is active.
Augmented STQL formua:
t:[0.000,0.800]_f:[0,24]_[](0,1) @(1,2) OR(1,3) OR(1,4) OR(1,5) OR(1,6) OR(1,7) OR(1,8) NOT(1,9) high_prob(1,10) NOT(1,11) spatio_far_left(1,12) NOT(1,13) spatio_far_right(1,14) NOT(1,15) spatio_far_up(1,16) NOT(1,17) spatio_far_down(1,18) NOT(1,19) t:[0.000,0.800]_f:[0,5]_<>(1,20) AND(1,21) <=(1,22) @(1,23) 1-ID-SYM(1,24) t:[0.000,0.800]_f:[0,2]_R(1,25) @(1,26) 2-ID-SYM(1,27) OR(1,28) NOT(1,29) <(1,30) @(1,31) @(1,32) AND(1,33) AND(1,34) spatio_overlap(1,35) 3-ID-SYM(1,36) 4-ID-SYM(1,37) 

Monitoring process started...
Monitoring done!

>> Running Time: 2.314000 seconds
ID table size: 8000
ID table num_obj: 20
ID table num_id: 3
Temporal formula size: 37

*** Robustness: False
*** Most Related Iteration: 24
*** Most Related Freeze Iteration: 24
*** Most Related Freeze Operator Index: 2
Releasing DP table memories and it may take a while!
Spatial Region size from ID table: 0

>> Memory Releasing Time: 0.000000 seconds
Exiting monitoring algorithm.
